module slagit.net/mail/install-linode

go 1.22

toolchain go1.22.3

require (
	github.com/linode/linodego v1.43.0
	golang.org/x/oauth2 v0.24.0
)

require (
	github.com/go-resty/resty/v2 v2.15.3 // indirect
	golang.org/x/net v0.30.0 // indirect
	golang.org/x/text v0.20.0 // indirect
	gopkg.in/ini.v1 v1.66.6 // indirect
)
