<svg xmlns="http://www.w3.org/2000/svg" width="128" height="128">
  <style>
    circle, path, rect {
      stroke: white;
    }
  </style>
  <defs>
    <clipPath id="dish2">
      <rect x="53" y="0" width="128" height="128" />
    </clipPath>
    <clipPath id="dish3">
      <rect x="75" y="0" width="128" height="128" />
    </clipPath>
  </defs>

  <!-- Outer Box -->
  <rect x="9" y="6" width="110" rx="5" ry="5" height="110" fill="transparent" stroke-width="5" />

  <!-- Stand -->
  <path d="M 18 119 v 5 h 92 v -5" fill="transparent" stroke-width="5" stroke-linecap="round" />

  <!-- Inner Box -->
  <rect x="19" y="34" width="90" rx="1" ry="1" height="72" fill="transparent" stroke-width="5" />

  <!-- Controls -->
  <circle cx="20" cy="20" r="2.5" />
  <circle cx="30" cy="20" r="2.5" />
  <circle cx="40" cy="20" r="2.5" />
  <path d="M 70 20 h 38" fill="transparent" stroke-width="5" stroke-linecap="round" />

  <!-- Rack -->
  <path d="M 19 98 h 90" fill="transparent" stroke-width="5" />

  <!-- Dishes -->
  <circle cx="42" cy="83" r="15" fill="transparent" stroke-width="5" />
  <circle cx="64" cy="83" r="15" fill="transparent" stroke-width="5" clip-path="url(#dish2)" />
  <circle cx="86" cy="83" r="15" fill="transparent" stroke-width="5" clip-path="url(#dish3)" />

  <!-- Spray -->
  <path d="M 54 42 l -6 7" fill="transparent" stroke-width="5" stroke-linecap="round" />
  <path d="M 64 42 v 8" fill="transparent" stroke-width="5" stroke-linecap="round" />
  <path d="M 74 42 l 6 7" fill="transparent" stroke-width="5" stroke-linecap="round" />
  <circle cx="39" cy="59" r="2.5" />
  <circle cx="64" cy="59" r="2.5" />
  <circle cx="89" cy="59" r="2.5" />
</svg>
